DBD::mysql::st execute failed: Can't find file: './tracenoizer/globalurl.frm' (errno: 13) at /home/tracenoizer/public_html/trace_centralV4.pl line 350.
DBD::mysql::st execute failed: Can't find file: './tracenoizer/globalurl.frm' (errno: 13) at /home/tracenoizer/public_html/trace_centralV4.pl line 350.
DBD::mysql::st execute failed: Can't find file: './tracenoizer/globalurl.frm' (errno: 13) at /home/tracenoizer/public_html/trace_centralV4.pl line 350.
DBD::mysql::st execute failed: Can't find file: './tracenoizer/globalurl.frm' (errno: 13) at /home/tracenoizer/public_html/trace_centralV4.pl line 350.
DBD::mysql::st execute failed: Can't find file: './tracenoizer/globalurl.frm' (errno: 13) at /home/tracenoizer/public_html/trace_centralV4.pl line 350.
DBD::mysql::st execute failed: Can't find file: './tracenoizer/globalurl.frm' (errno: 13) at /home/tracenoizer/public_html/trace_centralV4.pl line 350.
DBD::mysql::st execute failed: Can't find file: './tracenoizer/globalurl.frm' (errno: 13) at /home/tracenoizer/public_html/trace_centralV4.pl line 350.
DBD::mysql::st execute failed: Can't find file: './tracenoizer/globalurl.frm' (errno: 13) at /home/tracenoizer/public_html/trace_centralV4.pl line 350.
DBD::mysql::st execute failed: Can't find file: './tracenoizer/globalurl.frm' (errno: 13) at /home/tracenoizer/public_html/trace_centralV4.pl line 350.
DBD::mysql::st execute failed: Can't find file: './tracenoizer/globalurl.frm' (errno: 13) at /home/tracenoizer/public_html/trace_centralV4.pl line 350.
DBD::mysql::st execute failed: Can't find file: './tracenoizer/globalurl.frm' (errno: 13) at /home/tracenoizer/public_html/trace_centralV4.pl line 350.
DBD::mysql::st execute failed: Can't find file: './tracenoizer/globalurl.frm' (errno: 13) at /home/tracenoizer/public_html/trace_centralV4.pl line 350.
DBD::mysql::st execute failed: Can't find file: './tracenoizer/globalurl.frm' (errno: 13) at /home/tracenoizer/public_html/trace_centralV4.pl line 350.
DBD::mysql::st execute failed: Can't find file: './tracenoizer/globalurl.frm' (errno: 13) at /home/tracenoizer/public_html/trace_centralV4.pl line 350.
DBD::mysql::st execute failed: Can't find file: './tracenoizer/globalurl.frm' (errno: 13) at /home/tracenoizer/public_html/trace_centralV4.pl line 350.
DBD::mysql::st execute failed: Can't find file: './tracenoizer/globalurl.frm' (errno: 13) at /home/tracenoizer/public_html/trace_centralV4.pl line 350.
DBD::mysql::st execute failed: Can't find file: './tracenoizer/globalurl.frm' (errno: 13) at /home/tracenoizer/public_html/trace_centralV4.pl line 350.
DBD::mysql::st execute failed: Can't find file: './tracenoizer/globalurl.frm' (errno: 13) at /home/tracenoizer/public_html/trace_centralV4.pl line 350.
DBD::mysql::st execute failed: Can't find file: './tracenoizer/globalurl.frm' (errno: 13) at /home/tracenoizer/public_html/trace_centralV4.pl line 350.
DBD::mysql::st execute failed: Can't find file: './tracenoizer/globalurl.frm' (errno: 13) at /home/tracenoizer/public_html/trace_centralV4.pl line 350.
DBD::mysql::st execute failed: Can't find file: './tracenoizer/globalurl.frm' (errno: 13) at /home/tracenoizer/public_html/trace_centralV4.pl line 350.
DBD::mysql::st execute failed: Can't find file: './tracenoizer/globalurl.frm' (errno: 13) at /home/tracenoizer/public_html/trace_centralV4.pl line 350.
DBD::mysql::st execute failed: Can't find file: './tracenoizer/globalurl.frm' (errno: 13) at /home/tracenoizer/public_html/trace_centralV4.pl line 350.
DBD::mysql::st execute failed: Can't find file: './tracenoizer/globalurl.frm' (errno: 13) at /home/tracenoizer/public_html/trace_centralV4.pl line 350.
DBD::mysql::st execute failed: Can't find file: './tracenoizer/globalurl.frm' (errno: 13) at /home/tracenoizer/public_html/trace_centralV4.pl line 350.
DBD::mysql::st execute failed: Can't find file: './tracenoizer/globalurl.frm' (errno: 13) at /home/tracenoizer/public_html/trace_centralV4.pl line 350.
DBD::mysql::st execute failed: Can't find file: './tracenoizer/globalurl.frm' (errno: 13) at /home/tracenoizer/public_html/trace_centralV4.pl line 350.
DBD::mysql::st execute failed: Can't find file: './tracenoizer/globalurl.frm' (errno: 13) at /home/tracenoizer/public_html/trace_centralV4.pl line 350.
DBD::mysql::st execute failed: Can't find file: './tracenoizer/globalurl.frm' (errno: 13) at /home/tracenoizer/public_html/trace_centralV4.pl line 350.
DBD::mysql::st execute failed: Can't find file: './tracenoizer/globalurl.frm' (errno: 13) at /home/tracenoizer/public_html/trace_centralV4.pl line 350.
DBD::mysql::st execute failed: Can't find file: './tracenoizer/globalurl.frm' (errno: 13) at /home/tracenoizer/public_html/trace_centralV4.pl line 350.
DBD::mysql::st execute failed: Can't find file: './tracenoizer/globalurl.frm' (errno: 13) at /home/tracenoizer/public_html/trace_centralV4.pl line 350.
DBD::mysql::st execute failed: Can't find file: './tracenoizer/globalurl.frm' (errno: 13) at /home/tracenoizer/public_html/trace_centralV4.pl line 350.
DBD::mysql::st execute failed: Can't find file: './tracenoizer/globalurl.frm' (errno: 13) at /home/tracenoizer/public_html/trace_centralV4.pl line 350.
DBD::mysql::st execute failed: Can't find file: './tracenoizer/globalurl.frm' (errno: 13) at /home/tracenoizer/public_html/trace_centralV4.pl line 350.
DBD::mysql::st execute failed: Can't find file: './tracenoizer/globalurl.frm' (errno: 13) at /home/tracenoizer/public_html/trace_centralV4.pl line 350.
DBD::mysql::st execute failed: Can't find file: './tracenoizer/globalurl.frm' (errno: 13) at /home/tracenoizer/public_html/trace_centralV4.pl line 350.
DBD::mysql::st execute failed: Can't find file: './tracenoizer/globalurl.frm' (errno: 13) at /home/tracenoizer/public_html/trace_centralV4.pl line 350.
DBD::mysql::st execute failed: Can't find file: './tracenoizer/globalurl.frm' (errno: 13) at /home/tracenoizer/public_html/trace_centralV4.pl line 350.
DBD::mysql::st execute failed: Can't find file: './tracenoizer/globalurl.frm' (errno: 13) at /home/tracenoizer/public_html/trace_centralV4.pl line 350.
DBD::mysql::st execute failed: Can't find file: './tracenoizer/globalurl.frm' (errno: 13) at /home/tracenoizer/public_html/trace_centralV4.pl line 350.
DBD::mysql::st execute failed: Can't find file: './tracenoizer/globalurl.frm' (errno: 13) at /home/tracenoizer/public_html/trace_centralV4.pl line 350.
DBD::mysql::st execute failed: Can't find file: './tracenoizer/globalurl.frm' (errno: 13) at /home/tracenoizer/public_html/trace_centralV4.pl line 350.
DBD::mysql::st execute failed: Can't find file: './tracenoizer/globalurl.frm' (errno: 13) at /home/tracenoizer/public_html/trace_centralV4.pl line 350.
DBD::mysql::st execute failed: Can't find file: './tracenoizer/globalurl.frm' (errno: 13) at /home/tracenoizer/public_html/trace_centralV4.pl line 350.
DBD::mysql::st execute failed: Can't find file: './tracenoizer/globalurl.frm' (errno: 13) at /home/tracenoizer/public_html/trace_centralV4.pl line 350.
DBD::mysql::st execute failed: Can't find file: './tracenoizer/globalurl.frm' (errno: 13) at /home/tracenoizer/public_html/trace_centralV4.pl line 350.
DBD::mysql::st execute failed: Can't find file: './tracenoizer/globalurl.frm' (errno: 13) at /home/tracenoizer/public_html/trace_centralV4.pl line 350.
DBD::mysql::st execute failed: Can't find file: './tracenoizer/globalurl.frm' (errno: 13) at /home/tracenoizer/public_html/trace_centralV4.pl line 350.
DBD::mysql::st execute failed: Can't find file: './tracenoizer/globalurl.frm' (errno: 13) at /home/tracenoizer/public_html/trace_centralV4.pl line 350.
DBD::mysql::st execute failed: Can't find file: './tracenoizer/globalurl.frm' (errno: 13) at /home/tracenoizer/public_html/trace_centralV4.pl line 350.
DBD::mysql::st execute failed: Can't find file: './tracenoizer/globalurl.frm' (errno: 13) at /home/tracenoizer/public_html/trace_centralV4.pl line 350.
DBD::mysql::st execute failed: Can't find file: './tracenoizer/globalurl.frm' (errno: 13) at /home/tracenoizer/public_html/trace_centralV4.pl line 350.
DBD::mysql::st execute failed: Can't find file: './tracenoizer/globalurl.frm' (errno: 13) at /home/tracenoizer/public_html/trace_centralV4.pl line 350.
DBD::mysql::st execute failed: Can't find file: './tracenoizer/globalurl.frm' (errno: 13) at /home/tracenoizer/public_html/trace_centralV4.pl line 350.
DBD::mysql::st execute failed: Can't find file: './tracenoizer/globalurl.frm' (errno: 13) at /home/tracenoizer/public_html/trace_centralV4.pl line 350.
DBD::mysql::st execute failed: Can't find file: './tracenoizer/globalurl.frm' (errno: 13) at /home/tracenoizer/public_html/trace_centralV4.pl line 350.
DBD::mysql::st execute failed: Can't find file: './tracenoizer/globalurl.frm' (errno: 13) at /home/tracenoizer/public_html/trace_centralV4.pl line 350.
DBD::mysql::st execute failed: Can't find file: './tracenoizer/globalurl.frm' (errno: 13) at /home/tracenoizer/public_html/trace_centralV4.pl line 350.
DBD::mysql::st execute failed: Can't find file: './tracenoizer/globalurl.frm' (errno: 13) at /home/tracenoizer/public_html/trace_centralV4.pl line 350.
DBD::mysql::st execute failed: Can't find file: './tracenoizer/globalurl.frm' (errno: 13) at /home/tracenoizer/public_html/trace_centralV4.pl line 350.
DBD::mysql::st execute failed: Can't find file: './tracenoizer/globalurl.frm' (errno: 13) at /home/tracenoizer/public_html/trace_centralV4.pl line 350.
DBD::mysql::st execute failed: Can't find file: './tracenoizer/globalurl.frm' (errno: 13) at /home/tracenoizer/public_html/trace_centralV4.pl line 350.
DBD::mysql::st execute failed: Can't find file: './tracenoizer/globalurl.frm' (errno: 13) at /home/tracenoizer/public_html/trace_centralV4.pl line 350.
DBD::mysql::st execute failed: Can't find file: './tracenoizer/globalurl.frm' (errno: 13) at /home/tracenoizer/public_html/trace_centralV4.pl line 350.
DBD::mysql::st execute failed: Can't find file: './tracenoizer/globalurl.frm' (errno: 13) at /home/tracenoizer/public_html/trace_centralV4.pl line 350.
DBD::mysql::st execute failed: Can't find file: './tracenoizer/globalurl.frm' (errno: 13) at /home/tracenoizer/public_html/trace_centralV4.pl line 350.
DBD::mysql::st execute failed: Can't find file: './tracenoizer/globalurl.frm' (errno: 13) at /home/tracenoizer/public_html/trace_centralV4.pl line 350.
DBD::mysql::st execute failed: Can't find file: './tracenoizer/globalurl.frm' (errno: 13) at /home/tracenoizer/public_html/trace_centralV4.pl line 350.
DBD::mysql::st execute failed: Can't find file: './tracenoizer/globalurl.frm' (errno: 13) at /home/tracenoizer/public_html/trace_centralV4.pl line 350.
DBD::mysql::st execute failed: Can't find file: './tracenoizer/globalurl.frm' (errno: 13) at /home/tracenoizer/public_html/trace_centralV4.pl line 350.
DBD::mysql::st execute failed: Can't find file: './tracenoizer/globalurl.frm' (errno: 13) at /home/tracenoizer/public_html/trace_centralV4.pl line 350.
DBD::mysql::st execute failed: Can't find file: './tracenoizer/globalurl.frm' (errno: 13) at /home/tracenoizer/public_html/trace_centralV4.pl line 350.
DBD::mysql::st execute failed: Can't find file: './tracenoizer/globalurl.frm' (errno: 13) at /home/tracenoizer/public_html/trace_centralV4.pl line 350.
DBD::mysql::st execute failed: Can't find file: './tracenoizer/globalurl.frm' (errno: 13) at /home/tracenoizer/public_html/trace_centralV4.pl line 350.
DBD::mysql::st execute failed: Can't find file: './tracenoizer/globalurl.frm' (errno: 13) at /home/tracenoizer/public_html/trace_centralV4.pl line 350.
DBD::mysql::st execute failed: Can't find file: './tracenoizer/globalurl.frm' (errno: 13) at /home/tracenoizer/public_html/trace_centralV4.pl line 350.
DBD::mysql::st execute failed: Can't find file: './tracenoizer/globalurl.frm' (errno: 13) at /home/tracenoizer/public_html/trace_centralV4.pl line 350.
DBD::mysql::st execute failed: Can't find file: './tracenoizer/globalurl.frm' (errno: 13) at /home/tracenoizer/public_html/trace_centralV4.pl line 350.
DBD::mysql::st execute failed: Can't find file: './tracenoizer/globalurl.frm' (errno: 13) at /home/tracenoizer/public_html/trace_centralV4.pl line 350.
DBD::mysql::st execute failed: Can't find file: './tracenoizer/globalurl.frm' (errno: 13) at /home/tracenoizer/public_html/trace_centralV4.pl line 350.
DBD::mysql::st execute failed: Can't find file: './tracenoizer/globalurl.frm' (errno: 13) at /home/tracenoizer/public_html/trace_centralV4.pl line 350.
DBD::mysql::st execute failed: Can't find file: './tracenoizer/globalurl.frm' (errno: 13) at /home/tracenoizer/public_html/trace_centralV4.pl line 350.
DBD::mysql::st execute failed: Can't find file: './tracenoizer/globalurl.frm' (errno: 13) at /home/tracenoizer/public_html/trace_centralV4.pl line 350.
DBD::mysql::st execute failed: Can't find file: './tracenoizer/globalurl.frm' (errno: 13) at /home/tracenoizer/public_html/trace_centralV4.pl line 350.
DBD::mysql::st execute failed: Can't find file: './tracenoizer/globalurl.frm' (errno: 13) at /home/tracenoizer/public_html/trace_centralV4.pl line 350.
DBD::mysql::st execute failed: Can't find file: './tracenoizer/globalurl.frm' (errno: 13) at /home/tracenoizer/public_html/trace_centralV4.pl line 350.
DBD::mysql::st execute failed: Can't find file: './tracenoizer/globalurl.frm' (errno: 13) at /home/tracenoizer/public_html/trace_centralV4.pl line 350.
DBD::mysql::st execute failed: Can't find file: './tracenoizer/globalurl.frm' (errno: 13) at /home/tracenoizer/public_html/trace_centralV4.pl line 350.
DBD::mysql::st execute failed: Can't find file: './tracenoizer/globalurl.frm' (errno: 13) at /home/tracenoizer/public_html/trace_centralV4.pl line 350.
DBD::mysql::st execute failed: Can't find file: './tracenoizer/globalurl.frm' (errno: 13) at /home/tracenoizer/public_html/trace_centralV4.pl line 350.
--14:52:24--  http://www.tracenoizer.org/modelanleg.php?main_id=34518
           => `modelanleg.php?main_id=34518'
Resolving www.tracenoizer.org... done.
Connecting to www.tracenoizer.org[195.176.254.172]:80... connected.
HTTP request sent, awaiting response... 200 OK
Length: unspecified [text/html]

    0K                                                           8.79 KB/s

14:52:24 (8.79 KB/s) - `modelanleg.php?main_id=34518' saved [9]

Loading data files...
Placed remaining 19 documents in the train set:
Calculating info gain... words ::               1289     1189     1089      989      889      789      689      589      489      389      289      189       89
Loading data files...
Placed remaining 19 documents in the train set:
WARNING: class `30' has zero prior
Loading data files...
Placed remaining 19 documents in the train set:
WARNING: class `30' has zero prior
Loading data files...
Placed remaining 19 documents in the train set:
WARNING: class `30' has zero prior
Loading data files...
Placed remaining 19 documents in the train set:
WARNING: class `30' has zero prior
Loading data files...
Placed remaining 19 documents in the train set:
WARNING: class `30' has zero prior
Loading data files...
Placed remaining 19 documents in the train set:
WARNING: class `30' has zero prior
Loading data files...
Placed remaining 19 documents in the train set:
WARNING: class `30' has zero prior
Loading data files...
Placed remaining 19 documents in the train set:
WARNING: class `30' has zero prior
Loading data files...
Placed remaining 19 documents in the train set:
WARNING: class `30' has zero prior
Loading data files...
Placed remaining 19 documents in the train set:
WARNING: class `30' has zero prior
DBD::mysql::st execute failed: Can't find file: './tracenoizer/globalurl.frm' (errno: 13) at /home/tracenoizer/public_html/trace_centralV4.pl line 803.
DBD::mysql::st fetchrow_array failed: fetch() without execute() at /home/tracenoizer/public_html/trace_centralV4.pl line 809.
DBD::mysql::st execute failed: Can't find file: './tracenoizer/globalurl.frm' (errno: 13) at /home/tracenoizer/public_html/trace_centralV4.pl line 803.
DBD::mysql::st fetchrow_array failed: fetch() without execute() at /home/tracenoizer/public_html/trace_centralV4.pl line 809.
DBD::mysql::st execute failed: Can't find file: './tracenoizer/globalurl.frm' (errno: 13) at /home/tracenoizer/public_html/trace_centralV4.pl line 803.
DBD::mysql::st fetchrow_array failed: fetch() without execute() at /home/tracenoizer/public_html/trace_centralV4.pl line 809.
DBD::mysql::st execute failed: Can't find file: './tracenoizer/globalurl.frm' (errno: 13) at /home/tracenoizer/public_html/trace_centralV4.pl line 803.
DBD::mysql::st fetchrow_array failed: fetch() without execute() at /home/tracenoizer/public_html/trace_centralV4.pl line 809.
DBD::mysql::st execute failed: Can't find file: './tracenoizer/globalurl.frm' (errno: 13) at /home/tracenoizer/public_html/trace_centralV4.pl line 803.
DBD::mysql::st fetchrow_array failed: fetch() without execute() at /home/tracenoizer/public_html/trace_centralV4.pl line 809.
DBD::mysql::st execute failed: Can't find file: './tracenoizer/globalurl.frm' (errno: 13) at /home/tracenoizer/public_html/trace_centralV4.pl line 803.
DBD::mysql::st fetchrow_array failed: fetch() without execute() at /home/tracenoizer/public_html/trace_centralV4.pl line 809.
DBD::mysql::st execute failed: Can't find file: './tracenoizer/globalurl.frm' (errno: 13) at /home/tracenoizer/public_html/trace_centralV4.pl line 803.
DBD::mysql::st fetchrow_array failed: fetch() without execute() at /home/tracenoizer/public_html/trace_centralV4.pl line 809.
DBD::mysql::st execute failed: Can't find file: './tracenoizer/globalurl.frm' (errno: 13) at /home/tracenoizer/public_html/trace_centralV4.pl line 803.
DBD::mysql::st fetchrow_array failed: fetch() without execute() at /home/tracenoizer/public_html/trace_centralV4.pl line 809.
DBD::mysql::st execute failed: You have an error in your SQL syntax near 's MFA students discover how to write software that furthers their activities as ' at line 1 at /home/tracenoizer/public_html/trace_centralV4.pl line 763.
DBD::mysql::st execute failed: Can't find file: './tracenoizer/globalurl.frm' (errno: 13) at /home/tracenoizer/public_html/trace_centralV4.pl line 803.
DBD::mysql::st fetchrow_array failed: fetch() without execute() at /home/tracenoizer/public_html/trace_centralV4.pl line 809.
DBD::mysql::st execute failed: Can't find file: './tracenoizer/globalurl.frm' (errno: 13) at /home/tracenoizer/public_html/trace_centralV4.pl line 803.
DBD::mysql::st fetchrow_array failed: fetch() without execute() at /home/tracenoizer/public_html/trace_centralV4.pl line 809.
DBD::mysql::st execute failed: You have an error in your SQL syntax near '04 UDK Berlin '03 Yale Architecture '03 Nagoya '03 CCAC '03 MIT '03 UDK Berlin '' at line 1 at /home/tracenoizer/public_html/trace_centralV4.pl line 763.
sh: endee.txt: Permission denied
