sh: amp: command not found
DBD::mysql::st execute failed: Can't find file: './tracenoizer/globalurl.frm' (errno: 13) at /home/tracenoizer/public_html/trace_centralV4.pl line 350.
DBD::mysql::st execute failed: Can't find file: './tracenoizer/globalurl.frm' (errno: 13) at /home/tracenoizer/public_html/trace_centralV4.pl line 350.
DBD::mysql::st execute failed: Can't find file: './tracenoizer/globalurl.frm' (errno: 13) at /home/tracenoizer/public_html/trace_centralV4.pl line 350.
DBD::mysql::st execute failed: Can't find file: './tracenoizer/globalurl.frm' (errno: 13) at /home/tracenoizer/public_html/trace_centralV4.pl line 350.
DBD::mysql::st execute failed: Can't find file: './tracenoizer/globalurl.frm' (errno: 13) at /home/tracenoizer/public_html/trace_centralV4.pl line 350.
DBD::mysql::st execute failed: Can't find file: './tracenoizer/globalurl.frm' (errno: 13) at /home/tracenoizer/public_html/trace_centralV4.pl line 350.
DBD::mysql::st execute failed: Can't find file: './tracenoizer/globalurl.frm' (errno: 13) at /home/tracenoizer/public_html/trace_centralV4.pl line 350.
DBD::mysql::st execute failed: Can't find file: './tracenoizer/globalurl.frm' (errno: 13) at /home/tracenoizer/public_html/trace_centralV4.pl line 350.
DBD::mysql::st execute failed: Can't find file: './tracenoizer/globalurl.frm' (errno: 13) at /home/tracenoizer/public_html/trace_centralV4.pl line 350.
DBD::mysql::st execute failed: Can't find file: './tracenoizer/globalurl.frm' (errno: 13) at /home/tracenoizer/public_html/trace_centralV4.pl line 350.
DBD::mysql::st execute failed: Can't find file: './tracenoizer/globalurl.frm' (errno: 13) at /home/tracenoizer/public_html/trace_centralV4.pl line 350.
DBD::mysql::st execute failed: Can't find file: './tracenoizer/globalurl.frm' (errno: 13) at /home/tracenoizer/public_html/trace_centralV4.pl line 350.
DBD::mysql::st execute failed: Can't find file: './tracenoizer/globalurl.frm' (errno: 13) at /home/tracenoizer/public_html/trace_centralV4.pl line 350.
DBD::mysql::st execute failed: Can't find file: './tracenoizer/globalurl.frm' (errno: 13) at /home/tracenoizer/public_html/trace_centralV4.pl line 350.
DBD::mysql::st execute failed: Can't find file: './tracenoizer/globalurl.frm' (errno: 13) at /home/tracenoizer/public_html/trace_centralV4.pl line 350.
DBD::mysql::st execute failed: Can't find file: './tracenoizer/globalurl.frm' (errno: 13) at /home/tracenoizer/public_html/trace_centralV4.pl line 350.
DBD::mysql::st execute failed: Can't find file: './tracenoizer/globalurl.frm' (errno: 13) at /home/tracenoizer/public_html/trace_centralV4.pl line 350.
DBD::mysql::st execute failed: Can't find file: './tracenoizer/globalurl.frm' (errno: 13) at /home/tracenoizer/public_html/trace_centralV4.pl line 350.
DBD::mysql::st execute failed: Can't find file: './tracenoizer/globalurl.frm' (errno: 13) at /home/tracenoizer/public_html/trace_centralV4.pl line 350.
DBD::mysql::st execute failed: Can't find file: './tracenoizer/globalurl.frm' (errno: 13) at /home/tracenoizer/public_html/trace_centralV4.pl line 350.
DBD::mysql::st execute failed: Can't find file: './tracenoizer/globalurl.frm' (errno: 13) at /home/tracenoizer/public_html/trace_centralV4.pl line 350.
DBD::mysql::st execute failed: Can't find file: './tracenoizer/globalurl.frm' (errno: 13) at /home/tracenoizer/public_html/trace_centralV4.pl line 350.
DBD::mysql::st execute failed: Can't find file: './tracenoizer/globalurl.frm' (errno: 13) at /home/tracenoizer/public_html/trace_centralV4.pl line 350.
DBD::mysql::st execute failed: Can't find file: './tracenoizer/globalurl.frm' (errno: 13) at /home/tracenoizer/public_html/trace_centralV4.pl line 350.
DBD::mysql::st execute failed: Can't find file: './tracenoizer/globalurl.frm' (errno: 13) at /home/tracenoizer/public_html/trace_centralV4.pl line 350.
DBD::mysql::st execute failed: Can't find file: './tracenoizer/globalurl.frm' (errno: 13) at /home/tracenoizer/public_html/trace_centralV4.pl line 350.
DBD::mysql::st execute failed: Can't find file: './tracenoizer/globalurl.frm' (errno: 13) at /home/tracenoizer/public_html/trace_centralV4.pl line 350.
DBD::mysql::st execute failed: Can't find file: './tracenoizer/globalurl.frm' (errno: 13) at /home/tracenoizer/public_html/trace_centralV4.pl line 350.
DBD::mysql::st execute failed: Can't find file: './tracenoizer/globalurl.frm' (errno: 13) at /home/tracenoizer/public_html/trace_centralV4.pl line 350.
DBD::mysql::st execute failed: Can't find file: './tracenoizer/globalurl.frm' (errno: 13) at /home/tracenoizer/public_html/trace_centralV4.pl line 350.
DBD::mysql::st execute failed: Can't find file: './tracenoizer/globalurl.frm' (errno: 13) at /home/tracenoizer/public_html/trace_centralV4.pl line 350.
DBD::mysql::st execute failed: Can't find file: './tracenoizer/globalurl.frm' (errno: 13) at /home/tracenoizer/public_html/trace_centralV4.pl line 350.
DBD::mysql::st execute failed: Can't find file: './tracenoizer/globalurl.frm' (errno: 13) at /home/tracenoizer/public_html/trace_centralV4.pl line 350.
DBD::mysql::st execute failed: Can't find file: './tracenoizer/globalurl.frm' (errno: 13) at /home/tracenoizer/public_html/trace_centralV4.pl line 350.
DBD::mysql::st execute failed: Can't find file: './tracenoizer/globalurl.frm' (errno: 13) at /home/tracenoizer/public_html/trace_centralV4.pl line 350.
DBD::mysql::st execute failed: Can't find file: './tracenoizer/globalurl.frm' (errno: 13) at /home/tracenoizer/public_html/trace_centralV4.pl line 350.
DBD::mysql::st execute failed: Can't find file: './tracenoizer/globalurl.frm' (errno: 13) at /home/tracenoizer/public_html/trace_centralV4.pl line 350.
DBD::mysql::st execute failed: Can't find file: './tracenoizer/globalurl.frm' (errno: 13) at /home/tracenoizer/public_html/trace_centralV4.pl line 350.
DBD::mysql::st execute failed: Can't find file: './tracenoizer/globalurl.frm' (errno: 13) at /home/tracenoizer/public_html/trace_centralV4.pl line 350.
DBD::mysql::st execute failed: Can't find file: './tracenoizer/globalurl.frm' (errno: 13) at /home/tracenoizer/public_html/trace_centralV4.pl line 350.
DBD::mysql::st execute failed: Can't find file: './tracenoizer/globalurl.frm' (errno: 13) at /home/tracenoizer/public_html/trace_centralV4.pl line 350.
DBD::mysql::st execute failed: Can't find file: './tracenoizer/globalurl.frm' (errno: 13) at /home/tracenoizer/public_html/trace_centralV4.pl line 350.
DBD::mysql::st execute failed: Can't find file: './tracenoizer/globalurl.frm' (errno: 13) at /home/tracenoizer/public_html/trace_centralV4.pl line 350.
DBD::mysql::st execute failed: Can't find file: './tracenoizer/globalurl.frm' (errno: 13) at /home/tracenoizer/public_html/trace_centralV4.pl line 350.
DBD::mysql::st execute failed: Can't find file: './tracenoizer/globalurl.frm' (errno: 13) at /home/tracenoizer/public_html/trace_centralV4.pl line 350.
DBD::mysql::st execute failed: Can't find file: './tracenoizer/globalurl.frm' (errno: 13) at /home/tracenoizer/public_html/trace_centralV4.pl line 350.
DBD::mysql::st execute failed: Can't find file: './tracenoizer/globalurl.frm' (errno: 13) at /home/tracenoizer/public_html/trace_centralV4.pl line 350.
DBD::mysql::st execute failed: Can't find file: './tracenoizer/globalurl.frm' (errno: 13) at /home/tracenoizer/public_html/trace_centralV4.pl line 350.
DBD::mysql::st execute failed: Can't find file: './tracenoizer/globalurl.frm' (errno: 13) at /home/tracenoizer/public_html/trace_centralV4.pl line 350.
DBD::mysql::st execute failed: Can't find file: './tracenoizer/globalurl.frm' (errno: 13) at /home/tracenoizer/public_html/trace_centralV4.pl line 350.
DBD::mysql::st execute failed: Can't find file: './tracenoizer/globalurl.frm' (errno: 13) at /home/tracenoizer/public_html/trace_centralV4.pl line 350.
DBD::mysql::st execute failed: Can't find file: './tracenoizer/globalurl.frm' (errno: 13) at /home/tracenoizer/public_html/trace_centralV4.pl line 350.
DBD::mysql::st execute failed: Can't find file: './tracenoizer/globalurl.frm' (errno: 13) at /home/tracenoizer/public_html/trace_centralV4.pl line 350.
DBD::mysql::st execute failed: Can't find file: './tracenoizer/globalurl.frm' (errno: 13) at /home/tracenoizer/public_html/trace_centralV4.pl line 350.
DBD::mysql::st execute failed: Can't find file: './tracenoizer/globalurl.frm' (errno: 13) at /home/tracenoizer/public_html/trace_centralV4.pl line 350.
DBD::mysql::st execute failed: Can't find file: './tracenoizer/globalurl.frm' (errno: 13) at /home/tracenoizer/public_html/trace_centralV4.pl line 350.
DBD::mysql::st execute failed: Can't find file: './tracenoizer/globalurl.frm' (errno: 13) at /home/tracenoizer/public_html/trace_centralV4.pl line 350.
DBD::mysql::st execute failed: Can't find file: './tracenoizer/globalurl.frm' (errno: 13) at /home/tracenoizer/public_html/trace_centralV4.pl line 350.
DBD::mysql::st execute failed: Can't find file: './tracenoizer/globalurl.frm' (errno: 13) at /home/tracenoizer/public_html/trace_centralV4.pl line 350.
DBD::mysql::st execute failed: Can't find file: './tracenoizer/globalurl.frm' (errno: 13) at /home/tracenoizer/public_html/trace_centralV4.pl line 350.
DBD::mysql::st execute failed: Can't find file: './tracenoizer/globalurl.frm' (errno: 13) at /home/tracenoizer/public_html/trace_centralV4.pl line 350.
DBD::mysql::st execute failed: Can't find file: './tracenoizer/globalurl.frm' (errno: 13) at /home/tracenoizer/public_html/trace_centralV4.pl line 350.
DBD::mysql::st execute failed: Can't find file: './tracenoizer/globalurl.frm' (errno: 13) at /home/tracenoizer/public_html/trace_centralV4.pl line 350.
DBD::mysql::st execute failed: Can't find file: './tracenoizer/globalurl.frm' (errno: 13) at /home/tracenoizer/public_html/trace_centralV4.pl line 350.
DBD::mysql::st execute failed: Can't find file: './tracenoizer/globalurl.frm' (errno: 13) at /home/tracenoizer/public_html/trace_centralV4.pl line 350.
DBD::mysql::st execute failed: Can't find file: './tracenoizer/globalurl.frm' (errno: 13) at /home/tracenoizer/public_html/trace_centralV4.pl line 350.
DBD::mysql::st execute failed: Can't find file: './tracenoizer/globalurl.frm' (errno: 13) at /home/tracenoizer/public_html/trace_centralV4.pl line 350.
DBD::mysql::st execute failed: Can't find file: './tracenoizer/globalurl.frm' (errno: 13) at /home/tracenoizer/public_html/trace_centralV4.pl line 350.
DBD::mysql::st execute failed: Can't find file: './tracenoizer/globalurl.frm' (errno: 13) at /home/tracenoizer/public_html/trace_centralV4.pl line 350.
DBD::mysql::st execute failed: Can't find file: './tracenoizer/globalurl.frm' (errno: 13) at /home/tracenoizer/public_html/trace_centralV4.pl line 350.
DBD::mysql::st execute failed: Can't find file: './tracenoizer/globalurl.frm' (errno: 13) at /home/tracenoizer/public_html/trace_centralV4.pl line 350.
DBD::mysql::st execute failed: Can't find file: './tracenoizer/globalurl.frm' (errno: 13) at /home/tracenoizer/public_html/trace_centralV4.pl line 350.
DBD::mysql::st execute failed: Can't find file: './tracenoizer/globalurl.frm' (errno: 13) at /home/tracenoizer/public_html/trace_centralV4.pl line 350.
DBD::mysql::st execute failed: Can't find file: './tracenoizer/globalurl.frm' (errno: 13) at /home/tracenoizer/public_html/trace_centralV4.pl line 350.
DBD::mysql::st execute failed: Can't find file: './tracenoizer/globalurl.frm' (errno: 13) at /home/tracenoizer/public_html/trace_centralV4.pl line 350.
DBD::mysql::st execute failed: Can't find file: './tracenoizer/globalurl.frm' (errno: 13) at /home/tracenoizer/public_html/trace_centralV4.pl line 350.
DBD::mysql::st execute failed: Can't find file: './tracenoizer/globalurl.frm' (errno: 13) at /home/tracenoizer/public_html/trace_centralV4.pl line 350.
DBD::mysql::st execute failed: Can't find file: './tracenoizer/globalurl.frm' (errno: 13) at /home/tracenoizer/public_html/trace_centralV4.pl line 350.
DBD::mysql::st execute failed: Can't find file: './tracenoizer/globalurl.frm' (errno: 13) at /home/tracenoizer/public_html/trace_centralV4.pl line 350.
DBD::mysql::st execute failed: Can't find file: './tracenoizer/globalurl.frm' (errno: 13) at /home/tracenoizer/public_html/trace_centralV4.pl line 350.
DBD::mysql::st execute failed: Can't find file: './tracenoizer/globalurl.frm' (errno: 13) at /home/tracenoizer/public_html/trace_centralV4.pl line 350.
DBD::mysql::st execute failed: Can't find file: './tracenoizer/globalurl.frm' (errno: 13) at /home/tracenoizer/public_html/trace_centralV4.pl line 350.
DBD::mysql::st execute failed: Can't find file: './tracenoizer/globalurl.frm' (errno: 13) at /home/tracenoizer/public_html/trace_centralV4.pl line 350.
DBD::mysql::st execute failed: Can't find file: './tracenoizer/globalurl.frm' (errno: 13) at /home/tracenoizer/public_html/trace_centralV4.pl line 350.
DBD::mysql::st execute failed: Can't find file: './tracenoizer/globalurl.frm' (errno: 13) at /home/tracenoizer/public_html/trace_centralV4.pl line 350.
DBD::mysql::st execute failed: Can't find file: './tracenoizer/globalurl.frm' (errno: 13) at /home/tracenoizer/public_html/trace_centralV4.pl line 350.
DBD::mysql::st execute failed: Can't find file: './tracenoizer/globalurl.frm' (errno: 13) at /home/tracenoizer/public_html/trace_centralV4.pl line 350.
DBD::mysql::st execute failed: Can't find file: './tracenoizer/globalurl.frm' (errno: 13) at /home/tracenoizer/public_html/trace_centralV4.pl line 350.
DBD::mysql::st execute failed: Can't find file: './tracenoizer/globalurl.frm' (errno: 13) at /home/tracenoizer/public_html/trace_centralV4.pl line 350.
DBD::mysql::st execute failed: Can't find file: './tracenoizer/globalurl.frm' (errno: 13) at /home/tracenoizer/public_html/trace_centralV4.pl line 350.
DBD::mysql::st execute failed: Can't find file: './tracenoizer/globalurl.frm' (errno: 13) at /home/tracenoizer/public_html/trace_centralV4.pl line 350.
DBD::mysql::st execute failed: Can't find file: './tracenoizer/globalurl.frm' (errno: 13) at /home/tracenoizer/public_html/trace_centralV4.pl line 350.
DBD::mysql::st execute failed: Can't find file: './tracenoizer/globalurl.frm' (errno: 13) at /home/tracenoizer/public_html/trace_centralV4.pl line 350.
DBD::mysql::st execute failed: Can't find file: './tracenoizer/globalurl.frm' (errno: 13) at /home/tracenoizer/public_html/trace_centralV4.pl line 350.
DBD::mysql::st execute failed: Can't find file: './tracenoizer/globalurl.frm' (errno: 13) at /home/tracenoizer/public_html/trace_centralV4.pl line 350.
DBD::mysql::st execute failed: Can't find file: './tracenoizer/globalurl.frm' (errno: 13) at /home/tracenoizer/public_html/trace_centralV4.pl line 350.
DBD::mysql::st execute failed: Can't find file: './tracenoizer/globalurl.frm' (errno: 13) at /home/tracenoizer/public_html/trace_centralV4.pl line 350.
DBD::mysql::st execute failed: Can't find file: './tracenoizer/globalurl.frm' (errno: 13) at /home/tracenoizer/public_html/trace_centralV4.pl line 350.
DBD::mysql::st execute failed: Can't find file: './tracenoizer/globalurl.frm' (errno: 13) at /home/tracenoizer/public_html/trace_centralV4.pl line 350.
DBD::mysql::st execute failed: Can't find file: './tracenoizer/globalurl.frm' (errno: 13) at /home/tracenoizer/public_html/trace_centralV4.pl line 350.
DBD::mysql::st execute failed: Can't find file: './tracenoizer/globalurl.frm' (errno: 13) at /home/tracenoizer/public_html/trace_centralV4.pl line 350.
DBD::mysql::st execute failed: Can't find file: './tracenoizer/globalurl.frm' (errno: 13) at /home/tracenoizer/public_html/trace_centralV4.pl line 350.
DBD::mysql::st execute failed: Can't find file: './tracenoizer/globalurl.frm' (errno: 13) at /home/tracenoizer/public_html/trace_centralV4.pl line 350.
DBD::mysql::st execute failed: Can't find file: './tracenoizer/globalurl.frm' (errno: 13) at /home/tracenoizer/public_html/trace_centralV4.pl line 350.
DBD::mysql::st execute failed: Can't find file: './tracenoizer/globalurl.frm' (errno: 13) at /home/tracenoizer/public_html/trace_centralV4.pl line 350.
DBD::mysql::st execute failed: Can't find file: './tracenoizer/globalurl.frm' (errno: 13) at /home/tracenoizer/public_html/trace_centralV4.pl line 350.
DBD::mysql::st execute failed: Can't find file: './tracenoizer/globalurl.frm' (errno: 13) at /home/tracenoizer/public_html/trace_centralV4.pl line 350.
DBD::mysql::st execute failed: Can't find file: './tracenoizer/globalurl.frm' (errno: 13) at /home/tracenoizer/public_html/trace_centralV4.pl line 350.
DBD::mysql::st execute failed: Can't find file: './tracenoizer/globalurl.frm' (errno: 13) at /home/tracenoizer/public_html/trace_centralV4.pl line 350.
DBD::mysql::st execute failed: Can't find file: './tracenoizer/globalurl.frm' (errno: 13) at /home/tracenoizer/public_html/trace_centralV4.pl line 350.
DBD::mysql::st execute failed: Can't find file: './tracenoizer/globalurl.frm' (errno: 13) at /home/tracenoizer/public_html/trace_centralV4.pl line 350.
DBD::mysql::st execute failed: Can't find file: './tracenoizer/globalurl.frm' (errno: 13) at /home/tracenoizer/public_html/trace_centralV4.pl line 350.
DBD::mysql::st execute failed: Can't find file: './tracenoizer/globalurl.frm' (errno: 13) at /home/tracenoizer/public_html/trace_centralV4.pl line 350.
DBD::mysql::st execute failed: Can't find file: './tracenoizer/globalurl.frm' (errno: 13) at /home/tracenoizer/public_html/trace_centralV4.pl line 350.
DBD::mysql::st execute failed: Can't find file: './tracenoizer/globalurl.frm' (errno: 13) at /home/tracenoizer/public_html/trace_centralV4.pl line 350.
DBD::mysql::st execute failed: Can't find file: './tracenoizer/globalurl.frm' (errno: 13) at /home/tracenoizer/public_html/trace_centralV4.pl line 350.
DBD::mysql::st execute failed: Can't find file: './tracenoizer/globalurl.frm' (errno: 13) at /home/tracenoizer/public_html/trace_centralV4.pl line 350.
DBD::mysql::st execute failed: Can't find file: './tracenoizer/globalurl.frm' (errno: 13) at /home/tracenoizer/public_html/trace_centralV4.pl line 350.
DBD::mysql::st execute failed: Can't find file: './tracenoizer/globalurl.frm' (errno: 13) at /home/tracenoizer/public_html/trace_centralV4.pl line 350.
DBD::mysql::st execute failed: Can't find file: './tracenoizer/globalurl.frm' (errno: 13) at /home/tracenoizer/public_html/trace_centralV4.pl line 350.
DBD::mysql::st execute failed: Can't find file: './tracenoizer/globalurl.frm' (errno: 13) at /home/tracenoizer/public_html/trace_centralV4.pl line 350.
DBD::mysql::st execute failed: Can't find file: './tracenoizer/globalurl.frm' (errno: 13) at /home/tracenoizer/public_html/trace_centralV4.pl line 350.
DBD::mysql::st execute failed: Can't find file: './tracenoizer/globalurl.frm' (errno: 13) at /home/tracenoizer/public_html/trace_centralV4.pl line 350.
--21:22:56--  http://www.tracenoizer.org/modelanleg.php?main_id=34554
           => `modelanleg.php?main_id=34554'
Resolving www.tracenoizer.org... done.
Connecting to www.tracenoizer.org[195.176.254.172]:80... connected.
HTTP request sent, awaiting response... 200 OK
Length: unspecified [text/html]

    0K                                                           8.79 KB/s

21:22:56 (8.79 KB/s) - `modelanleg.php?main_id=34554' saved [9]

Loading data files...
Placed remaining 23 documents in the train set:
Calculating info gain... words ::               1034      934      834      734      634      534      434      334      234      134       34
Loading data files...
Placed remaining 23 documents in the train set:
Loading data files...
Placed remaining 23 documents in the train set:
Loading data files...
Placed remaining 23 documents in the train set:
Loading data files...
Placed remaining 23 documents in the train set:
Loading data files...
Placed remaining 23 documents in the train set:
Loading data files...
Placed remaining 23 documents in the train set:
Loading data files...
Placed remaining 23 documents in the train set:
Loading data files...
Placed remaining 23 documents in the train set:
Loading data files...
Placed remaining 23 documents in the train set:
Loading data files...
Placed remaining 23 documents in the train set:
DBD::mysql::st execute failed: Can't find file: './tracenoizer/globalurl.frm' (errno: 13) at /home/tracenoizer/public_html/trace_centralV4.pl line 803.
DBD::mysql::st fetchrow_array failed: fetch() without execute() at /home/tracenoizer/public_html/trace_centralV4.pl line 809.
DBD::mysql::st execute failed: You have an error in your SQL syntax near 's first name and mother's first name and maiden name. Back to Sersale Vital Stat' at line 1 at /home/tracenoizer/public_html/trace_centralV4.pl line 763.
DBD::mysql::st execute failed: Can't find file: './tracenoizer/globalurl.frm' (errno: 13) at /home/tracenoizer/public_html/trace_centralV4.pl line 803.
DBD::mysql::st fetchrow_array failed: fetch() without execute() at /home/tracenoizer/public_html/trace_centralV4.pl line 809.
DBD::mysql::st execute failed: You have an error in your SQL syntax near 's first name and mother's first name and maiden name. Back to Sersale Vital Stat' at line 1 at /home/tracenoizer/public_html/trace_centralV4.pl line 763.
DBD::mysql::st execute failed: Can't find file: './tracenoizer/globalurl.frm' (errno: 13) at /home/tracenoizer/public_html/trace_centralV4.pl line 803.
DBD::mysql::st fetchrow_array failed: fetch() without execute() at /home/tracenoizer/public_html/trace_centralV4.pl line 809.
DBD::mysql::st execute failed: You have an error in your SQL syntax near 's first name and mother's first name and maiden name.">
<meta name="Revisit-afte' at line 1 at /home/tracenoizer/public_html/trace_centralV4.pl line 763.
DBD::mysql::st execute failed: Can't find file: './tracenoizer/globalurl.frm' (errno: 13) at /home/tracenoizer/public_html/trace_centralV4.pl line 803.
DBD::mysql::st fetchrow_array failed: fetch() without execute() at /home/tracenoizer/public_html/trace_centralV4.pl line 809.
DBD::mysql::st execute failed: You have an error in your SQL syntax near 's first name and mother's first name and maiden name. Back to Sersale Vital Stat' at line 1 at /home/tracenoizer/public_html/trace_centralV4.pl line 763.
DBD::mysql::st execute failed: Can't find file: './tracenoizer/globalurl.frm' (errno: 13) at /home/tracenoizer/public_html/trace_centralV4.pl line 803.
DBD::mysql::st fetchrow_array failed: fetch() without execute() at /home/tracenoizer/public_html/trace_centralV4.pl line 809.
DBD::mysql::st execute failed: You have an error in your SQL syntax near 's first name and mother's first name and maiden name. Back to Sersale Vital Stat' at line 1 at /home/tracenoizer/public_html/trace_centralV4.pl line 763.
DBD::mysql::st execute failed: Can't find file: './tracenoizer/globalurl.frm' (errno: 13) at /home/tracenoizer/public_html/trace_centralV4.pl line 803.
DBD::mysql::st fetchrow_array failed: fetch() without execute() at /home/tracenoizer/public_html/trace_centralV4.pl line 809.
DBD::mysql::st execute failed: You have an error in your SQL syntax near 's first name and mother's first name and maiden name. Back to Sersale Vital Stat' at line 1 at /home/tracenoizer/public_html/trace_centralV4.pl line 763.
DBD::mysql::st execute failed: Can't find file: './tracenoizer/globalurl.frm' (errno: 13) at /home/tracenoizer/public_html/trace_centralV4.pl line 803.
DBD::mysql::st fetchrow_array failed: fetch() without execute() at /home/tracenoizer/public_html/trace_centralV4.pl line 809.
DBD::mysql::st execute failed: You have an error in your SQL syntax near 'organo della Steccata. Margherita di Colorno , cui le soldataglie spagnole aveva' at line 1 at /home/tracenoizer/public_html/trace_centralV4.pl line 763.
DBD::mysql::st execute failed: Can't find file: './tracenoizer/globalurl.frm' (errno: 13) at /home/tracenoizer/public_html/trace_centralV4.pl line 803.
DBD::mysql::st fetchrow_array failed: fetch() without execute() at /home/tracenoizer/public_html/trace_centralV4.pl line 809.
DBD::mysql::st execute failed: You have an error in your SQL syntax near 'amor di te. . Dalle braccia sue la vita mi concedi Hoc perdidit ante puellas Son' at line 1 at /home/tracenoizer/public_html/trace_centralV4.pl line 763.
DBD::mysql::st execute failed: Can't find file: './tracenoizer/globalurl.frm' (errno: 13) at /home/tracenoizer/public_html/trace_centralV4.pl line 803.
DBD::mysql::st fetchrow_array failed: fetch() without execute() at /home/tracenoizer/public_html/trace_centralV4.pl line 809.
DBD::mysql::st execute failed: You have an error in your SQL syntax near 'ordine per coalizioni) , alla Cancelleria del Tribunale di Potenza per le elezio' at line 1 at /home/tracenoizer/public_html/trace_centralV4.pl line 763.
DBD::mysql::st execute failed: Can't find file: './tracenoizer/globalurl.frm' (errno: 13) at /home/tracenoizer/public_html/trace_centralV4.pl line 803.
DBD::mysql::st fetchrow_array failed: fetch() without execute() at /home/tracenoizer/public_html/trace_centralV4.pl line 809.
DBD::mysql::st execute failed: You have an error in your SQL syntax near 's first name and mother's first name and maiden name. Back to Sersale Vital Stat' at line 1 at /home/tracenoizer/public_html/trace_centralV4.pl line 763.
sh: endee.txt: Permission denied
